Lab 14: Summarizing Data
…
males and females dont share resources and they feed away from their breeding territory

males and females share resources on their territory only during the breeding season

males and females share resources on their territory all year round.

clutch_size (dbl): average number of eggs produced per clutch

Notice that the last two variables are integer codes. They are stored as numbers but correspond to a category.

Summarizing the Data

Create a new dataset which summarizes everything to the level of a bird type using the group_summarize function:

## # A tibble: 169 x 26
##              type egg_mass_mean male_mass_mean mating_system_mean
##             <chr>         <dbl>          <dbl>              <dbl>
##  1       Accentor         2.130       21.40000           1.000000
##  2      Albatross       336.800     5672.00000           2.000000
##  3       Avadavat         0.960       10.00000           4.000000
##  4      Bee-eater         5.300       42.80000           2.000000
##  5       Bellbird         4.765       47.55000           2.000000
##  6         Bishop         1.660       25.50000           4.000000
##  7 Black-Cockatoo        31.400      646.02500           2.000000
##  8      Blackbird         4.990       73.13333           3.333333
##  9       Blackcap         2.190       18.10000           2.000000
## 10     Bluebonnet         5.200       93.70000           2.000000
## # ... with 159 more rows, and 22 more variables: display_mean <dbl>,
## #   resource_mean <dbl>, clutch_size_mean <dbl>, egg_mass_median <dbl>,
## #   male_mass_median <dbl>, mating_system_median <dbl>,
## #   display_median <dbl>, resource_median <dbl>, clutch_size_median <dbl>,
## #   egg_mass_sd <dbl>, male_mass_sd <dbl>, mating_system_sd <dbl>,
## #   display_sd <dbl>, resource_sd <dbl>, clutch_size_sd <dbl>,
## #   egg_mass_sum <dbl>, male_mass_sum <dbl>, mating_system_sum <int>,
## #   display_sum <int>, resource_sum <int>, clutch_size_sum <dbl>, n <int>
…
