Lab 10: Filtering Data
…
Lab 10: Filtering Data

Pick a dataset

Today you will again have a choice of three datasets to work with. You can choose either to investigate the daily team ELO ratings in the NBA:

Metadata from US senators tweets:

Or swear words given in the movies of Quentin Tarantino:

Pick a dataset (feel free to delete the others from the Rmd file if you would like), and work on the instructions in the next section.

## # A tibble: 2,624 x 4
##          date season  team      elo
##        <date>  <int> <chr>    <dbl>
##  1 2009-10-27   2010   BOS 1629.088
##  2 2009-10-27   2010   CLE 1669.566
##  3 2009-10-27   2010   DAL 1560.640
##  4 2009-10-27   2010   HOU 1616.968
##  5 2009-10-27   2010   LAC 1317.255
##  6 2009-10-27   2010   LAL 1719.382
##  7 2009-10-27   2010   POR 1608.024
##  8 2009-10-27   2010   WAS 1387.208
##  9 2009-10-28   2010   ATL 1512.245
## 10 2009-10-28   2010   BOS 1636.297
## # ... with 2,614 more rows

The table filters the data of season 2010 from nba.

## # A tibble: 466 x 4
##          date season  team      elo
##        <date>  <int> <chr>    <dbl>
##  1 2009-10-27   2010   BOS 1629.088
##  2 2009-10-27   2010   CLE 1669.566
##  3 2009-10-27   2010   DAL 1560.640
##  4 2009-10-27   2010   HOU 1616.968
##  5 2009-10-27   2010   LAC 1317.255
##  6 2009-10-27   2010   LAL 1719.382
##  7 2009-10-27   2010   POR 1608.024
##  8 2009-10-27   2010   WAS 1387.208
##  9 2009-10-28   2010   ATL 1512.245
## 10 2009-10-28   2010   BOS 1636.297
## # ... with 456 more rows
…
 This graph shows the distribution of the first month elo for each team in season 2010.

## # A tibble: 888 x 4
##          date season  team      elo
##        <date>  <int> <chr>    <dbl>
##  1 2009-10-27   2010   BOS 1629.088
##  2 2009-10-27   2010   CLE 1669.566
##  3 2009-10-27   2010   DAL 1560.640
##  4 2009-10-27   2010   HOU 1616.968
##  5 2009-10-27   2010   LAC 1317.255
##  6 2009-10-27   2010   LAL 1719.382
##  7 2009-10-27   2010   POR 1608.024
##  8 2009-10-27   2010   WAS 1387.208
##  9 2009-10-28   2010   ATL 1512.245
## 10 2009-10-28   2010   BOS 1636.297
## # ... with 878 more rows
…
 This graph shows the distribution of the second month elo for each team in season 2010.

## # A tibble: 1,346 x 4
##          date season  team      elo
##        <date>  <int> <chr>    <dbl>
##  1 2009-10-27   2010   BOS 1629.088
##  2 2009-10-27   2010   CLE 1669.566
##  3 2009-10-27   2010   DAL 1560.640
##  4 2009-10-27   2010   HOU 1616.968
##  5 2009-10-27   2010   LAC 1317.255
##  6 2009-10-27   2010   LAL 1719.382
##  7 2009-10-27   2010   POR 1608.024
##  8 2009-10-27   2010   WAS 1387.208
##  9 2009-10-28   2010   ATL 1512.245
## 10 2009-10-28   2010   BOS 1636.297
## # ... with 1,336 more rows
…
